{
  "unversionedId": "extra-logo-branding",
  "id": "extra-logo-branding",
  "title": "Logo & Branding",
  "description": "The React Leaflet logo provides a way for the community to identify and communicate the technologies used in their mapping applications. While the library is open source, it's encouraged to follow the best practices defined below to upload the integrity of the logo itself and what it represents.",
  "source": "@site/docs/extra-logo-branding.md",
  "sourceDirName": ".",
  "slug": "/extra-logo-branding",
  "permalink": "/docs/extra-logo-branding",
  "tags": [],
  "version": "current",
  "frontMatter": {
    "title": "Logo & Branding"
  },
  "sidebar": "docs",
  "previous": {
    "title": "Core API",
    "permalink": "/docs/core-api"
  },
  "next": {
    "title": "Third-party plugins",
    "permalink": "/docs/extra-plugins"
  }
}